Added Component: Designator=LPC1(LPC_1769)
Added Pin To Net: NetName=GND Pin=LPC1-1
Added Pin To Net: NetName=NetIC1_12 Pin=LPC1-15
Added Pin To Net: NetName=NetC_ADC1_1 Pin=LPC1-20
Added Pin To Net: NetName=+3.3V Pin=LPC1-28
Added Pin To Net: NetName=Net*1_6 Pin=LPC1-38
Added Pin To Net: NetName=Net*1_11 Pin=LPC1-39
Added Pin To Net: NetName=Net*1_12 Pin=LPC1-40
Added Pin To Net: NetName=NetIC1_9 Pin=LPC1-44
Added Pin To Net: NetName=Net*1_13 Pin=LPC1-46
Added Pin To Net: NetName=Net*1_14 Pin=LPC1-47
Added Pin To Net: NetName=Net*1_4 Pin=LPC1-48
Added Pin To Net: NetName=NetIC1_11 Pin=LPC1-52
Added Pin To Net: NetName=NetIC1_10 Pin=LPC1-53
Added Pin To Net: NetName=GND Pin=LPC1-54
Added Pin To Net: NetName=NetIC1_15 Pin=LPC1-PAD14
